{
	"ioInfo": [{
		"label": "订单号",
		"prop": "orderCode",
		"flag": "true",
		"index": 1,
		"width": 130,
		"align": "center",
		"sortable": false
	}, {
		"label": "客户单号",
		"prop": "customerNumber",
		"flag": "true",
		"index": 2,
		"width": 130,
		"align": "center",
		"sortable": false
	}, {
		"label": "操作节点",
		"prop": "orderStatus",
		"flag": "true",
		"index": 3,
		"width": 100,
		"align": "center",
		"sortable": false
	}, {
		"label": "收入完成",
		"prop": "incomeRecorded",
		"flag": "true",
		"index": 4,
		"width": 110,
		"align": "center",
		"sortable": false
	}, {
		"label": "成本完成",
		"prop": "costRecorded",
		"flag": "true",
		"index": 5,
		"width": 110,
		"align": "center",
		"sortable": false
	}, {
		"label": "业务分类",
		"prop": "businessMethod",
		"flag": "true",
		"index": 6,
		"width": 80,
		"align": "center",
		"sortable": false
	}, {
		"label": "业务日期",
		"prop": "businessDate",
		"flag": "true",
		"index": 7,
		"width": 120,
		"align": "center",
		"sortable": false
	}, {
		"label": "起运地",
		"prop": "departureStation",
		"flag": "true",
		"index": 8,
		"width": 100,
		"align": "center",
		"sortable": false
	}, {
		"label": "目的地",
		"prop": "arrivalStation",
		"flag": "true",
		"index": 9,
		"width": 100,
		"align": "center",
		"sortable": false
	}, {
		"label": "货物类型",
		"prop": "goodsType",
		"flag": "true",
		"index": 10,
		"width": 80,
		"align": "center",
		"sortable": false
	}, {
		"label": "件数",
		"prop": "planPieces",
		"flag": "true",
		"index": 12,
		"width": 110,
		"align": "center",
		"sortable": false
	},{
		"label": "毛重(KG)",
		"prop": "planWeight",
		"flag": "true",
		"index": 14,
		"width": 110,
		"align": "center",
		"sortable": false
	},  {
		"label": "体积(CMB)",
		"prop": "planVolume",
		"flag": "true",
		"index": 16,
		"width": 120,
		"align": "center",
		"sortable": false
	}, {
		"label": "计重(KG)",
		"prop": "planChargeWeight",
		"flag": "true",
		"index": 18,
		"width": 120,
		"align": "center",
		"sortable": false
	}, {
		"label": "中文品名",
		"prop": "goodsNameCn",
		"flag": "true",
		"index": 20,
		"width": 150,
		"align": "center",
		"sortable": false
	},{
		"label": "英文品名",
		"prop": "goodsNameEn",
		"flag": "true",
		"index": 20,
		"width": 150,
		"align": "center",
		"sortable": false
	}, {
		"label": "责任客服",
		"prop": "servicerName",
		"flag": "true",
		"index": 21,
		"width": 90,
		"align": "center",
		"sortable": false
	}, {
		"label": "责任销售",
		"prop": "salesName",
		"flag": "true",
		"index": 22,
		"width": 90,
		"align": "center",
		"sortable": false
	}, {
		"label": "责任操作",
		"prop": "creatorName",
		"flag": "true",
		"index": 23,
		"width": 90,
		"align": "center",
		"sortable": false
	}, {
		"label": "订单备注",
		"prop": "orderRemark",
		"flag": "true",
		"index": 24,
		"width": 200,
		"align": "center",
		"sortable": false
	}]
}
