{
	"afPaymentInfo": [{
		"label": "对账单编号",
		"prop": "paymentNum",
		"flag": "true",
		"index": 1,
		"width": 160,
		"align": "center",
		"sortable": false
	}, {
		"label": "对账单状态",
		"prop": "paymentStatus",
		"flag": "true",
		"index": 2,
		"width": 100,
		"align": "center",
		"sortable": false
	}, {
		"label": "对账日期",
		"prop": "paymentDate",
		"flag": "true",
		"index": 3,
		"width": 120,
		"align": "center",
		"sortable": false
	}, {
		"label": "供应商",
		"prop": "customerName",
		"flag": "true",
		"index": 4,
		"width": 280,
		"align": "left",
		"sortable": false
	}, {
		"label": "对账单金额",
		"prop": "amountPaymentStr",
		"flag": "true",
		"index": 5,
		"width": 170,
		"align": "right",
		"sortable": false
	}, {
		"label": "已核销金额",
		"prop": "amountPaymentWriteoffStr",
		"flag": "true",
		"index": 6,
		"width": 170,
		"align": "right",
		"sortable": false
	}, {
		"label": "未核销金额",
		"prop": "amountPaymentNoWriteoffStr",
		"flag": "true",
		"index": 7,
		"width": 170,
		"align": "right",
		"sortable": false
	}, {
		"label": "对账人",
		"prop": "creatorName",
		"flag": "true",
		"index": 8,
		"width": 250,
		"align": "center",
		"sortable": false
	}, {
		"label": "对账时间",
		"prop": "createTime",
		"flag": "true",
		"index": 9,
		"width": 150,
		"align": "center",
		"sortable": false
	}, {
		"label": "核销单号",
		"prop": "writeoffNum",
		"flag": "true",
		"index": 10,
		"width": 140,
		"align": "center",
		"sortable": false
	}, {
    "label": "发票日期",
    "prop": "invoiceDate",
    "flag": "true",
    "index": 11,
    "width": 100,
    "align": "center",
    "sortable": false
  }, {
    "label": "发票号码",
    "prop": "invoiceNum",
    "flag": "true",
    "index": 12,
    "width": 200,
    "align": "center",
    "sortable": false
  }, {
    "label": "发票抬头",
    "prop": "invoiceTitle",
    "flag": "true",
    "index": 13,
    "width": 300,
    "align": "left",
    "sortable": false
  }, {
		"label": "发票备注",
		"prop": "invoiceRemark",
		"flag": "true",
		"index": 14,
		"width": 200,
		"align": "left",
		"sortable": false
	}]
}
